<svg width="13" height="18" viewBox="0 0 13 18" fill="none" xmlns="http://www.w3.org/2000/svg">
<path d="M1.8 1.8V16.2H10.8V1.8H1.8ZM0.9 0H11.7C11.9387 0 12.1676 0.0948211 12.3364 0.263604C12.5052 0.432387 12.6 0.661305 12.6 0.9V17.1C12.6 17.3387 12.5052 17.5676 12.3364 17.7364C12.1676 17.9052 11.9387 18 11.7 18H0.9C0.661305 18 0.432387 17.9052 0.263604 17.7364C0.0948213 17.5676 0 17.3387 0 17.1V0.9C0 0.661305 0.0948213 0.432387 0.263604 0.263604C0.432387 0.0948211 0.661305 0 0.9 0ZM6.3 13.5C6.5387 13.5 6.76761 13.5948 6.9364 13.7636C7.10518 13.9324 7.2 14.1613 7.2 14.4C7.2 14.6387 7.10518 14.8676 6.9364 15.0364C6.76761 15.2052 6.5387 15.3 6.3 15.3C6.06131 15.3 5.83239 15.2052 5.6636 15.0364C5.49482 14.8676 5.4 14.6387 5.4 14.4C5.4 14.1613 5.49482 13.9324 5.6636 13.7636C5.83239 13.5948 6.06131 13.5 6.3 13.5Z" fill="white"/>
<path d="M1.8 1.8V16.2H10.8V1.8H1.8ZM0.9 0H11.7C11.9387 0 12.1676 0.0948211 12.3364 0.263604C12.5052 0.432387 12.6 0.661305 12.6 0.9V17.1C12.6 17.3387 12.5052 17.5676 12.3364 17.7364C12.1676 17.9052 11.9387 18 11.7 18H0.9C0.661305 18 0.432387 17.9052 0.263604 17.7364C0.0948213 17.5676 0 17.3387 0 17.1V0.9C0 0.661305 0.0948213 0.432387 0.263604 0.263604C0.432387 0.0948211 0.661305 0 0.9 0ZM6.3 13.5C6.5387 13.5 6.76761 13.5948 6.9364 13.7636C7.10518 13.9324 7.2 14.1613 7.2 14.4C7.2 14.6387 7.10518 14.8676 6.9364 15.0364C6.76761 15.2052 6.5387 15.3 6.3 15.3C6.06131 15.3 5.83239 15.2052 5.6636 15.0364C5.49482 14.8676 5.4 14.6387 5.4 14.4C5.4 14.1613 5.49482 13.9324 5.6636 13.7636C5.83239 13.5948 6.06131 13.5 6.3 13.5Z" fill="url(#paint0_linear_86_1304)"/>
<defs>
<linearGradient id="paint0_linear_86_1304" x1="3.18706" y1="2.64007e-07" x2="14.098" y2="14.7546" gradientUnits="userSpaceOnUse">
<stop stop-color="#714BF1"/>
<stop offset="1" stop-color="#576CEB"/>
</linearGradient>
</defs>
</svg>
