<svg width="18" height="3" viewBox="0 0 18 3" fill="none" xmlns="http://www.w3.org/2000/svg">
<path d="M18 1.5C18 0.675 17.325 -2.95052e-08 16.5 -6.55671e-08C15.675 -1.01629e-07 15 0.675 15 1.5C15 2.325 15.675 3 16.5 3C17.325 3 18 2.325 18 1.5ZM3 1.5C3 0.674999 2.325 -6.85176e-07 1.5 -7.21238e-07C0.674999 -7.573e-07 -2.95052e-08 0.674999 -6.55671e-08 1.5C-1.01629e-07 2.325 0.674999 3 1.5 3C2.325 3 3 2.325 3 1.5ZM10.5 1.5C10.5 0.675 9.825 -3.57341e-07 9 -3.93402e-07C8.175 -4.29464e-07 7.5 0.675 7.5 1.5C7.5 2.325 8.175 3 9 3C9.825 3 10.5 2.325 10.5 1.5Z" fill="#201E38"/>
</svg>
