<svg width="15" height="18" viewBox="0 0 15 18" fill="none" xmlns="http://www.w3.org/2000/svg">
<path d="M12.1395 6.69767C12.1395 5.36542 11.6103 4.08774 10.6683 3.1457C9.72621 2.20365 8.44853 1.67442 7.11628 1.67442C5.78403 1.67442 4.50634 2.20365 3.5643 3.1457C2.62226 4.08774 2.09302 5.36542 2.09302 6.69767V13.3953H12.1395V6.69767ZM13.814 13.9538L14.1488 14.4C14.1955 14.4622 14.2239 14.5361 14.2309 14.6136C14.2378 14.691 14.2231 14.7688 14.1884 14.8384C14.1536 14.9079 14.1002 14.9664 14.034 15.0072C13.9679 15.0481 13.8917 15.0698 13.814 15.0698H0.418605C0.340865 15.0698 0.264661 15.0481 0.198531 15.0072C0.132402 14.9664 0.0789597 14.9079 0.0441934 14.8384C0.00942708 14.7688 -0.00528982 14.691 0.00169165 14.6136C0.00867313 14.5361 0.0370771 14.4622 0.083721 14.4L0.418605 13.9538V6.69767C0.418605 4.92134 1.12425 3.21776 2.38031 1.9617C3.63637 0.705646 5.33994 0 7.11628 0C8.89261 0 10.5962 0.705646 11.8522 1.9617C13.1083 3.21776 13.814 4.92134 13.814 6.69767V13.9538ZM5.02326 15.907H9.2093C9.2093 16.4621 8.98879 16.9944 8.59627 17.387C8.20375 17.7795 7.67138 18 7.11628 18C6.56117 18 6.02881 17.7795 5.63629 17.387C5.24377 16.9944 5.02326 16.4621 5.02326 15.907Z" fill="white"/>
<path d="M12.1395 6.69767C12.1395 5.36542 11.6103 4.08774 10.6683 3.1457C9.72621 2.20365 8.44853 1.67442 7.11628 1.67442C5.78403 1.67442 4.50634 2.20365 3.5643 3.1457C2.62226 4.08774 2.09302 5.36542 2.09302 6.69767V13.3953H12.1395V6.69767ZM13.814 13.9538L14.1488 14.4C14.1955 14.4622 14.2239 14.5361 14.2309 14.6136C14.2378 14.691 14.2231 14.7688 14.1884 14.8384C14.1536 14.9079 14.1002 14.9664 14.034 15.0072C13.9679 15.0481 13.8917 15.0698 13.814 15.0698H0.418605C0.340865 15.0698 0.264661 15.0481 0.198531 15.0072C0.132402 14.9664 0.0789597 14.9079 0.0441934 14.8384C0.00942708 14.7688 -0.00528982 14.691 0.00169165 14.6136C0.00867313 14.5361 0.0370771 14.4622 0.083721 14.4L0.418605 13.9538V6.69767C0.418605 4.92134 1.12425 3.21776 2.38031 1.9617C3.63637 0.705646 5.33994 0 7.11628 0C8.89261 0 10.5962 0.705646 11.8522 1.9617C13.1083 3.21776 13.814 4.92134 13.814 6.69767V13.9538ZM5.02326 15.907H9.2093C9.2093 16.4621 8.98879 16.9944 8.59627 17.387C8.20375 17.7795 7.67138 18 7.11628 18C6.56117 18 6.02881 17.7795 5.63629 17.387C5.24377 16.9944 5.02326 16.4621 5.02326 15.907Z" fill="url(#paint0_linear_86_1329)"/>
<defs>
<linearGradient id="paint0_linear_86_1329" x1="3.6" y1="2.64007e-07" x2="14.059" y2="15.976" gradientUnits="userSpaceOnUse">
<stop stop-color="#714BF1"/>
<stop offset="1" stop-color="#576CEB"/>
</linearGradient>
</defs>
</svg>
